[gd_scene load_steps=5 format=2]

[ext_resource path="res://assets/backgrounds/howls-moving-castle-capitol-city.jpg" type="Texture" id=1]
[ext_resource path="res://assets/backgrounds/shopTransparent.png" type="Texture" id=2]
[ext_resource path="res://assets/backgrounds/Illustration.png" type="Texture" id=3]
[ext_resource path="res://assets/backgrounds/shopOpaque.jpg" type="Texture" id=4]

[node name="BackgroundHandler" type="Control"]

anchor_left = 0.0
anchor_top = 0.0
anchor_right = 1.0
anchor_bottom = 1.0
rect_pivot_offset = Vector2( 0, 0 )
rect_clip_content = false
mouse_filter = 0
mouse_default_cursor_shape = 0
size_flags_horizontal = 1
size_flags_vertical = 1

[node name="CityBackground" type="Control" parent="." index="0"]

visible = false
anchor_left = 0.0
anchor_top = 0.0
anchor_right = 1.0
anchor_bottom = 1.0
rect_pivot_offset = Vector2( 0, 0 )
rect_clip_content = false
mouse_filter = 0
mouse_default_cursor_shape = 0
size_flags_horizontal = 1
size_flags_vertical = 1

[node name="rich_city" type="TextureRect" parent="CityBackground" index="0"]

anchor_left = 0.0
anchor_top = 0.0
anchor_right = 1.0
anchor_bottom = 1.0
margin_left = 659.0
margin_right = -4.0
margin_bottom = -315.0
rect_pivot_offset = Vector2( 0, 0 )
rect_clip_content = false
mouse_filter = 1
mouse_default_cursor_shape = 0
size_flags_horizontal = 1
size_flags_vertical = 1
texture = ExtResource( 1 )
expand = true
stretch_mode = 0
_sections_unfolded = [ "Material", "Pause" ]

[node name="ShopBackground" type="Control" parent="." index="1"]

anchor_left = 0.0
anchor_top = 0.0
anchor_right = 1.0
anchor_bottom = 1.0
margin_bottom = 1.0
rect_pivot_offset = Vector2( 0, 0 )
rect_clip_content = false
mouse_filter = 0
mouse_default_cursor_shape = 0
size_flags_horizontal = 0
size_flags_vertical = 0
_sections_unfolded = [ "Size Flags", "Visibility" ]

[node name="ShopTransparent" type="TextureRect" parent="ShopBackground" index="0"]

visible = false
anchor_left = 0.0
anchor_top = 0.0
anchor_right = 1.0
anchor_bottom = 1.0
rect_pivot_offset = Vector2( 0, 0 )
rect_clip_content = false
mouse_filter = 1
mouse_default_cursor_shape = 0
size_flags_horizontal = 1
size_flags_vertical = 1
texture = ExtResource( 2 )
expand = true
stretch_mode = 0
_sections_unfolded = [ "Material", "Visibility" ]

[node name="Shop2" type="TextureRect" parent="ShopBackground" index="1"]

anchor_left = 0.0
anchor_top = 0.0
anchor_right = 1.0
anchor_bottom = 1.0
rect_pivot_offset = Vector2( 0, 0 )
rect_clip_content = false
mouse_filter = 1
mouse_default_cursor_shape = 0
size_flags_horizontal = 1
size_flags_vertical = 1
texture = ExtResource( 3 )
expand = true
stretch_mode = 0
_sections_unfolded = [ "Material", "Visibility" ]

[node name="Shop" type="TextureRect" parent="ShopBackground" index="2"]

visible = false
anchor_left = 0.0
anchor_top = 0.0
anchor_right = 1.0
anchor_bottom = 1.0
rect_pivot_offset = Vector2( 0, 0 )
rect_clip_content = false
mouse_filter = 1
mouse_default_cursor_shape = 0
size_flags_horizontal = 1
size_flags_vertical = 1
texture = ExtResource( 4 )
expand = true
stretch_mode = 0


