[gd_scene load_steps=4 format=2]

[ext_resource path="res://assets/GUI/pause/pause_hover.png" type="Texture" id=1]
[ext_resource path="res://assets/GUI/pause/pause.png" type="Texture" id=2]
[ext_resource path="res://PauseTextureButton.gd" type="Script" id=3]

[node name="Pause" type="MarginContainer"]

anchor_left = 0.0
anchor_top = 0.0
anchor_right = 1.0
anchor_bottom = 1.0
margin_right = -964.0
margin_bottom = -540.0
rect_pivot_offset = Vector2( 0, 0 )
rect_clip_content = false
mouse_filter = 0
mouse_default_cursor_shape = 0
size_flags_horizontal = 0
size_flags_vertical = 0
custom_constants/margin_right = 0
custom_constants/margin_top = 0
custom_constants/margin_left = 0
custom_constants/margin_bottom = 0
_sections_unfolded = [ "Anchor", "Margin", "Size Flags", "custom_constants" ]

[node name="PauseTextureButton" type="TextureButton" parent="." index="0"]

anchor_left = 0.0
anchor_top = 0.0
anchor_right = 0.0
anchor_bottom = 0.0
margin_right = 60.0
margin_bottom = 60.0
rect_min_size = Vector2( 60, 60 )
rect_pivot_offset = Vector2( 0, 0 )
rect_clip_content = false
focus_mode = 2
mouse_filter = 0
mouse_default_cursor_shape = 0
size_flags_horizontal = 0
size_flags_vertical = 0
toggle_mode = false
enabled_focus_mode = 2
shortcut = null
group = null
texture_normal = ExtResource( 1 )
texture_hover = ExtResource( 2 )
expand = true
stretch_mode = 5
script = ExtResource( 3 )
_sections_unfolded = [ "Rect", "Size Flags", "Textures" ]

[connection signal="pressed" from="PauseTextureButton" to="PauseTextureButton" method="_on_PauseTextureButton_pressed"]


