[gd_scene load_steps=4 format=2]

[ext_resource path="res://assets/GUI/bar/popularityBarUnder.png" type="Texture" id=1]
[ext_resource path="res://assets/GUI/bar/popularityBarProgress.png" type="Texture" id=2]
[ext_resource path="res://assets/GUI/bar/cityPopularity.png" type="Texture" id=3]

[node name="PopularityBar" type="HBoxContainer"]

anchor_left = 0.0
anchor_top = 0.0
anchor_right = 0.0
anchor_bottom = 0.0
margin_right = 306.0
margin_bottom = 54.0
rect_pivot_offset = Vector2( 0, 0 )
rect_clip_content = false
mouse_filter = 1
mouse_default_cursor_shape = 0
size_flags_horizontal = 0
size_flags_vertical = 0
alignment = 0
_sections_unfolded = [ "Size Flags", "custom_constants" ]

[node name="PanelContainer" type="PanelContainer" parent="." index="0"]

anchor_left = 0.0
anchor_top = 0.0
anchor_right = 0.0
anchor_bottom = 0.0
margin_right = 306.0
margin_bottom = 54.0
rect_pivot_offset = Vector2( 0, 0 )
rect_clip_content = false
mouse_filter = 0
mouse_default_cursor_shape = 0
size_flags_horizontal = 1
size_flags_vertical = 0

[node name="HBoxContainer" type="HBoxContainer" parent="PanelContainer" index="0"]

anchor_left = 0.0
anchor_top = 0.0
anchor_right = 0.0
anchor_bottom = 0.0
margin_left = 7.0
margin_top = 7.0
margin_right = 299.0
margin_bottom = 47.0
rect_pivot_offset = Vector2( 0, 0 )
rect_clip_content = false
mouse_filter = 1
mouse_default_cursor_shape = 0
size_flags_horizontal = 1
size_flags_vertical = 1
alignment = 0
_sections_unfolded = [ "Size Flags", "custom_constants" ]

[node name="PopularityTextureProgress" type="TextureProgress" parent="PanelContainer/HBoxContainer" index="0"]

anchor_left = 0.0
anchor_top = 0.0
anchor_right = 0.0
anchor_bottom = 0.0
margin_right = 248.0
margin_bottom = 40.0
rect_pivot_offset = Vector2( 0, 0 )
rect_clip_content = false
mouse_filter = 1
mouse_default_cursor_shape = 0
size_flags_horizontal = 1
size_flags_vertical = 0
min_value = 0.0
max_value = 200.0
step = 1.0
page = 0.0
value = 25.0
exp_edit = false
rounded = false
texture_under = ExtResource( 1 )
texture_over = null
texture_progress = ExtResource( 2 )
radial_fill_degrees = 360.0
radial_center_offset = Vector2( 0, 0 )
nine_patch_stretch = false
_sections_unfolded = [ "Size Flags", "Textures" ]

[node name="Fame" type="TextureRect" parent="PanelContainer/HBoxContainer" index="1"]

anchor_left = 0.0
anchor_top = 0.0
anchor_right = 0.0
anchor_bottom = 0.0
margin_left = 252.0
margin_right = 292.0
margin_bottom = 40.0
rect_min_size = Vector2( 40, 40 )
rect_pivot_offset = Vector2( 0, 0 )
rect_clip_content = false
mouse_filter = 1
mouse_default_cursor_shape = 0
size_flags_horizontal = 0
size_flags_vertical = 0
texture = ExtResource( 3 )
expand = true
stretch_mode = 0
_sections_unfolded = [ "Focus", "Hint", "Rect", "Size Flags" ]


